{
  "header": {
    "status-code": 200,
    "status-message": "success"
  },
  "body": {
    "count": 15,
    "data": [
      {
        "acl": 1,
        "karma": 0,
        "verified": false,
        "tags": [],
        "languages": [],
        "_id": "5c8f9a7c4760a9729f5022d3",
        "name": "admin",
        "phone": 1,
        "adminPassword": "admin"
      },
      {
        "acl": 1,
        "karma": 20,
        "verified": false,
        "tags": [
          "Classes",
          "Nearby Services",
          "Health & Wellness",
          "Sale",
          "Professional Services",
          "Jobs",
          "Neighbours",
          "Real Estate",
          "Test",
          "Personal"
        ],
        "languages": [
          "English"
        ],
        "_id": "5c950786a6ac0a0c85023ce8",
        "imeiNumber": "359473077433817",
        "phone": 1111111111,
        "otp": 1021,
        "otpCreated": "2019-03-22T16:04:59.273Z",
        "__v": 0
      },
      {
        "acl": 1,
        "karma": 0,
        "verified": false,
        "tags": [
          "Classes",
          "Nearby Services",
          "Neighbours",
          "Sale",
          "Health & Wellness",
          "Jobs",
          "Test",
          "Real Estate",
          "Professional Services",
          "Personal"
        ],
        "languages": [
          "English"
        ],
        "_id": "5c95287fa6ac0a0c85023cec",
        "imeiNumber": "EmulatorIMEI",
        "phone": 1234567802,
        "otp": 6296,
        "otpCreated": "2019-03-23T18:44:49.081Z",
        "__v": 0,
        "name": "SFUser02",
        "nick": "SFUser02"
      },
      {
        "acl": 1,
        "karma": 0,
        "verified": false,
        "tags": [],
        "languages": [],
        "_id": "5c991b204d206d2892d8e285",
        "imeiNumber": "EmulatorIMEI",
        "phone": 1234567803,
        "otp": 4401,
        "otpCreated": "2019-03-25T18:17:04.043Z",
        "__v": 0
      },
      {
        "acl": 1,
        "karma": 0,
        "verified": false,
        "tags": [
          "Classes",
          "Nearby Services",
          "Neighbours",
          "Sale",
          "Professional Services",
          "Jobs",
          "Health & Wellness",
          "Real Estate",
          "Test",
          "Personal"
        ],
        "languages": [
          "English"
        ],
        "_id": "5c965516a6ac0a0c85023d2d",
        "imeiNumber": "359473077433817",
        "phone": 1234567806,
        "otp": 9160,
        "otpCreated": "2019-03-23T19:00:04.449Z",
        "__v": 0,
        "name": "J7User06",
        "nick": "J7User06"
      },
      {
        "acl": 1,
        "karma": 0,
        "verified": false,
        "tags": [
          "Classes",
          "Nearby Services",
          "Sale",
          "Test",
          "Jobs",
          "Neighbours",
          "Real Estate",
          "Professional Services",
          "Personal",
          "Health & Wellness"
        ],
        "languages": [
          "English"
        ],
        "_id": "5c96597aa6ac0a0c85023d35",
        "imeiNumber": "352093098866683",
        "phone": 1234567807,
        "otp": 1558,
        "otpCreated": "2019-03-23T16:06:18.387Z",
        "__v": 0,
        "name": "SGUser07",
        "nick": "SGUser07"
      },
      {
        "acl": 1,
        "karma": 0,
        "verified": false,
        "tags": [
          "Banking",
          "Sale",
          "Automobile",
          "Neighbours",
          "Rental",
          "Real Estate",
          "Test",
          "Classes",
          "Personal",
          "Nearby Services",
          "Jobs",
          "Professional Services",
          "Health & Wellness"
        ],
        "languages": [
          "English"
        ],
        "_id": "5c8f9bd2a6ac0a0c85023cc7",
        "imeiNumber": "866817036217230",
        "phone": 7795146959,
        "otp": 4500,
        "otpCreated": "2019-03-18T13:23:30.404Z",
        "__v": 0,
        "name": "prabhahara",
        "nick": "prabhahara"
      },
      {
        "acl": 1,
        "karma": 0,
        "verified": false,
        "tags": [
          "Rental",
          "Technology"
        ],
        "languages": [
          "English",
          "Kannada"
        ],
        "_id": "5c5b37f2303429206aca4fc7",
        "imeiNumber": "EmulatorIMEI",
        "phone": 8861229444,
        "otp": 7515,
        "otpCreated": "2019-01-24T15:39:53.009Z",
        "__v": 0,
        "name": "DineshM",
        "nick": "nick2"
      },
      {
        "acl": 1,
        "karma": 0,
        "verified": false,
        "tags": [],
        "languages": [],
        "_id": "5c9753b0a6ac0a0c85023d83",
        "imeiNumber": "863819038497847",
        "phone": 8888888888,
        "otp": 1627,
        "otpCreated": "2019-03-24T09:53:52.229Z",
        "__v": 0
      },
      {
        "acl": 1,
        "karma": 0,
        "verified": false,
        "tags": [
          "Banking",
          "Sale",
          "Health & Wellness",
          "Automobile",
          "Real Estate",
          "Test",
          "Rental",
          "Neighbours",
          "Classes",
          "Jobs",
          "Professional Services",
          "Nearby Services",
          "Personal"
        ],
        "languages": [
          "English"
        ],
        "_id": "5c974dd7a6ac0a0c85023d76",
        "imeiNumber": "864914047558371",
        "phone": 9538672861,
        "otp": 1559,
        "otpCreated": "2019-03-24T09:28:55.436Z",
        "__v": 0,
        "name": "bargs@123",
        "nick": "bargs@123"
      },
      {
        "acl": 1,
        "karma": 0,
        "verified": false,
        "tags": [
          "Banking",
          "Sale",
          "Automobile",
          "Jobs",
          "Professional Services",
          "Rental",
          "Real Estate",
          "Test",
          "Nearby Services",
          "Neighbours",
          "Classes",
          "Personal",
          "Health & Wellness"
        ],
        "languages": [
          "English"
        ],
        "_id": "5c968e5ca6ac0a0c85023d69",
        "imeiNumber": "359053098313998",
        "phone": 9538672865,
        "otp": 4456,
        "otpCreated": "2019-03-23T19:51:56.775Z",
        "__v": 0,
        "name": "Taken guy",
        "nick": "Taken guy"
      },
      {
        "acl": 1,
        "karma": 0,
        "verified": false,
        "tags": [
          "Banking",
          "Jobs",
          "Automobile",
          "Health & Wellness",
          "Rental",
          "Neighbours",
          "Classes",
          "Personal",
          "Sale",
          "Real Estate",
          "Test"
        ],
        "languages": [
          "English"
        ],
        "_id": "5c974d97a6ac0a0c85023d73",
        "imeiNumber": "990012001112660",
        "phone": 9620625876,
        "otp": 9959,
        "otpCreated": "2019-03-24T09:27:51.006Z",
        "__v": 0,
        "name": "prem23",
        "nick": "prem23"
      },
      {
        "acl": 1,
        "karma": 0,
        "verified": false,
        "tags": [
          "Banking",
          "Automobile",
          "Nearby Services",
          "Sale",
          "Neighbours",
          "Health & Wellness",
          "Rental",
          "Professional Services",
          "Classes",
          "Real Estate",
          "Test",
          "Jobs",
          "Personal"
        ],
        "languages": [
          "English"
        ],
        "_id": "5c990d644d206d2892d8e275",
        "imeiNumber": "866790030379191",
        "phone": 9739027373,
        "otp": 5831,
        "otpCreated": "2019-03-25T17:18:28.973Z",
        "__v": 0,
        "name": "Pavithra",
        "nick": "Pavithra"
      },
      {
        "acl": 1,
        "karma": 0,
        "verified": false,
        "tags": [
          "Banking",
          "Sale",
          "Health & Wellness",
          "Automobile",
          "Jobs",
          "Professional Services",
          "Rental",
          "Personal",
          "Classes",
          "Neighbours",
          "Nearby Services",
          "Real Estate",
          "Test"
        ],
        "languages": [
          "English"
        ],
        "_id": "5c8f9abfa6ac0a0c85023cb5",
        "imeiNumber": "869289024965153",
        "phone": 9739804373,
        "otp": 1277,
        "otpCreated": "2019-03-25T16:57:29.962Z",
        "__v": 0,
        "name": "Vignesh Se",
        "nick": "Vignesh Se"
      },
      {
        "acl": 1,
        "karma": 0,
        "verified": false,
        "tags": [],
        "languages": [],
        "_id": "5c975402501df1242cd77d77",
        "imeiNumber": "863819038497847",
        "phone": 9790411282,
        "otp": 7855,
        "otpCreated": "2019-03-24T10:01:32.023Z",
        "__v": 0
      }
    ]
  }
}