{
  "header": {
    "status-code": 200,
    "status-message": "success"
  },
  "body": {
    "count": 1,
    "data": [
      {
        "ok": 1,
        "nModified": 0,
        "n": 0
      }
    ]
  }
}